[gd_resource type="TileSet" load_steps=30 format=2]

[ext_resource path="res://Assets/Base pack (360 assets)/PNG/Tiles/grassMid.png" type="Texture" id=1]
[ext_resource path="res://Assets/Base pack (360 assets)/PNG/Tiles/grassHillRight.png" type="Texture" id=2]
[ext_resource path="res://Assets/Base pack (360 assets)/PNG/Tiles/grassCliffLeft.png" type="Texture" id=3]
[ext_resource path="res://Assets/Base pack (360 assets)/PNG/Tiles/grass.png" type="Texture" id=4]
[ext_resource path="res://Assets/Base pack (360 assets)/PNG/Tiles/grassCliffRight.png" type="Texture" id=5]
[ext_resource path="res://Assets/Base pack (360 assets)/PNG/Tiles/grassRight.png" type="Texture" id=6]
[ext_resource path="res://Assets/Base pack (360 assets)/PNG/Tiles/grassCenter_rounded.png" type="Texture" id=7]
[ext_resource path="res://Assets/Base pack (360 assets)/PNG/Tiles/grassHillLeft.png" type="Texture" id=8]
[ext_resource path="res://Assets/Base pack (360 assets)/PNG/Tiles/grassHillRight2.png" type="Texture" id=9]
[ext_resource path="res://Assets/Base pack (360 assets)/PNG/Tiles/grassLeft.png" type="Texture" id=10]
[ext_resource path="res://Assets/Base pack (360 assets)/PNG/Tiles/grassCliffLeftAlt.png" type="Texture" id=11]
[ext_resource path="res://Assets/Base pack (360 assets)/PNG/Tiles/grassCenter.png" type="Texture" id=12]
[ext_resource path="res://Assets/Base pack (360 assets)/PNG/Tiles/grassHillLeft2.png" type="Texture" id=13]
[ext_resource path="res://Assets/Base pack (360 assets)/PNG/Tiles/grassHalf.png" type="Texture" id=14]
[ext_resource path="res://Assets/Base pack (360 assets)/PNG/Tiles/grassCliffRightAlt.png" type="Texture" id=15]

[sub_resource type="ConvexPolygonShape2D" id=1]
points = PoolVector2Array( 70, 70, 0, 70, 0, 0, 70, 0 )

[sub_resource type="ConvexPolygonShape2D" id=2]
points = PoolVector2Array( 70, 70, 0, 70, 0, 0, 70, 0 )

[sub_resource type="ConvexPolygonShape2D" id=3]
points = PoolVector2Array( 70, 70, 0, 70, 0, 0, 70, 0 )

[sub_resource type="ConvexPolygonShape2D" id=4]
points = PoolVector2Array( 70, 70, 0, 70, 0, 0, 70, 0 )

[sub_resource type="ConvexPolygonShape2D" id=5]
points = PoolVector2Array( 70, 70, 0, 70, 0, 0, 70, 0 )

[sub_resource type="ConvexPolygonShape2D" id=6]
points = PoolVector2Array( 70, 70, 0, 70, 0, 0, 0, 0 )

[sub_resource type="ConvexPolygonShape2D" id=7]
points = PoolVector2Array( 70, 0, 70, 70, 0, 70, 0, 70 )

[sub_resource type="ConvexPolygonShape2D" id=8]
points = PoolVector2Array( 70, 70, 0, 70, 0, 0, 70, 0 )

[sub_resource type="ConvexPolygonShape2D" id=9]
points = PoolVector2Array( 0, 0, 70, 0, 70, 70, 0, 70 )

[sub_resource type="ConvexPolygonShape2D" id=10]
points = PoolVector2Array( 70, 70, 0, 70, 0, 0, 70, 0 )

[sub_resource type="ConvexPolygonShape2D" id=11]
points = PoolVector2Array( 70, 70, 0, 70, 0, 0, 70, 0 )

[sub_resource type="ConvexPolygonShape2D" id=12]
points = PoolVector2Array( 70, 70, 0, 70, 0, 0, 70, 0 )

[sub_resource type="ConvexPolygonShape2D" id=13]
points = PoolVector2Array( 70, 70, 0, 70, 0, 0, 70, 0 )

[sub_resource type="ConvexPolygonShape2D" id=14]
points = PoolVector2Array( 70, 70, 0, 70, 0, 0, 70, 0 )

[resource]
0/name = "grass.png 0"
0/texture = ExtResource( 4 )
0/tex_offset = Vector2( 0, 0 )
0/modulate = Color( 1, 1, 1, 1 )
0/region = Rect2( 0, 0, 70, 70 )
0/tile_mode = 0
0/occluder_offset = Vector2( 0, 0 )
0/navigation_offset = Vector2( 0, 0 )
0/shape_offset = Vector2( 0, 0 )
0/shape_transform = Transform2D( 1, 0, 0, 1, 0, 0 )
0/shape = SubResource( 1 )
0/shape_one_way = false
0/shape_one_way_margin = 1.0
0/shapes = [ {
"autotile_coord": Vector2( 0, 0 ),
"one_way": false,
"one_way_margin": 1.0,
"shape": SubResource( 1 ),
"shape_transform": Transform2D( 1, 0, 0, 1, 0, 0 )
} ]
0/z_index = 0
1/name = "grassCenter.png 1"
1/texture = ExtResource( 12 )
1/tex_offset = Vector2( 0, 0 )
1/modulate = Color( 1, 1, 1, 1 )
1/region = Rect2( 0, 0, 70, 70 )
1/tile_mode = 0
1/occluder_offset = Vector2( 0, 0 )
1/navigation_offset = Vector2( 0, 0 )
1/shape_offset = Vector2( 0, 0 )
1/shape_transform = Transform2D( 1, 0, 0, 1, 0, 0 )
1/shape = SubResource( 2 )
1/shape_one_way = false
1/shape_one_way_margin = 1.0
1/shapes = [ {
"autotile_coord": Vector2( 0, 0 ),
"one_way": false,
"one_way_margin": 1.0,
"shape": SubResource( 2 ),
"shape_transform": Transform2D( 1, 0, 0, 1, 0, 0 )
} ]
1/z_index = 0
2/name = "grassCenter_rounded.png 2"
2/texture = ExtResource( 7 )
2/tex_offset = Vector2( 0, 0 )
2/modulate = Color( 1, 1, 1, 1 )
2/region = Rect2( 0, 0, 70, 70 )
2/tile_mode = 0
2/occluder_offset = Vector2( 0, 0 )
2/navigation_offset = Vector2( 0, 0 )
2/shape_offset = Vector2( 0, 0 )
2/shape_transform = Transform2D( 1, 0, 0, 1, 0, 0 )
2/shape = SubResource( 8 )
2/shape_one_way = false
2/shape_one_way_margin = 1.0
2/shapes = [ {
"autotile_coord": Vector2( 0, 0 ),
"one_way": false,
"one_way_margin": 1.0,
"shape": SubResource( 8 ),
"shape_transform": Transform2D( 1, 0, 0, 1, 0, 0 )
} ]
2/z_index = 0
3/name = "grassCliffLeft.png 3"
3/texture = ExtResource( 3 )
3/tex_offset = Vector2( 0, 0 )
3/modulate = Color( 1, 1, 1, 1 )
3/region = Rect2( 0, 0, 70, 70 )
3/tile_mode = 0
3/occluder_offset = Vector2( 0, 0 )
3/navigation_offset = Vector2( 0, 0 )
3/shape_offset = Vector2( 0, 0 )
3/shape_transform = Transform2D( 1, 0, 0, 1, 0, 0 )
3/shape = SubResource( 9 )
3/shape_one_way = false
3/shape_one_way_margin = 1.0
3/shapes = [ {
"autotile_coord": Vector2( 0, 0 ),
"one_way": false,
"one_way_margin": 1.0,
"shape": SubResource( 9 ),
"shape_transform": Transform2D( 1, 0, 0, 1, 0, 0 )
} ]
3/z_index = 0
4/name = "grassCliffLeftAlt.png 4"
4/texture = ExtResource( 11 )
4/tex_offset = Vector2( 0, 0 )
4/modulate = Color( 1, 1, 1, 1 )
4/region = Rect2( 0, 0, 70, 70 )
4/tile_mode = 0
4/occluder_offset = Vector2( 0, 0 )
4/navigation_offset = Vector2( 0, 0 )
4/shape_offset = Vector2( 0, 0 )
4/shape_transform = Transform2D( 1, 0, 0, 1, 0, 0 )
4/shape = SubResource( 10 )
4/shape_one_way = false
4/shape_one_way_margin = 1.0
4/shapes = [ {
"autotile_coord": Vector2( 0, 0 ),
"one_way": false,
"one_way_margin": 1.0,
"shape": SubResource( 10 ),
"shape_transform": Transform2D( 1, 0, 0, 1, 0, 0 )
} ]
4/z_index = 0
5/name = "grassCliffRight.png 5"
5/texture = ExtResource( 5 )
5/tex_offset = Vector2( 0, 0 )
5/modulate = Color( 1, 1, 1, 1 )
5/region = Rect2( 0, 0, 70, 70 )
5/tile_mode = 0
5/occluder_offset = Vector2( 0, 0 )
5/navigation_offset = Vector2( 0, 0 )
5/shape_offset = Vector2( 0, 0 )
5/shape_transform = Transform2D( 1, 0, 0, 1, 0, 0 )
5/shape = SubResource( 11 )
5/shape_one_way = false
5/shape_one_way_margin = 1.0
5/shapes = [ {
"autotile_coord": Vector2( 0, 0 ),
"one_way": false,
"one_way_margin": 1.0,
"shape": SubResource( 11 ),
"shape_transform": Transform2D( 1, 0, 0, 1, 0, 0 )
} ]
5/z_index = 0
6/name = "grassCliffRightAlt.png 6"
6/texture = ExtResource( 15 )
6/tex_offset = Vector2( 0, 0 )
6/modulate = Color( 1, 1, 1, 1 )
6/region = Rect2( 0, 0, 70, 70 )
6/tile_mode = 0
6/occluder_offset = Vector2( 0, 0 )
6/navigation_offset = Vector2( 0, 0 )
6/shape_offset = Vector2( 0, 0 )
6/shape_transform = Transform2D( 1, 0, 0, 1, 0, 0 )
6/shape = SubResource( 12 )
6/shape_one_way = false
6/shape_one_way_margin = 1.0
6/shapes = [ {
"autotile_coord": Vector2( 0, 0 ),
"one_way": false,
"one_way_margin": 1.0,
"shape": SubResource( 12 ),
"shape_transform": Transform2D( 1, 0, 0, 1, 0, 0 )
} ]
6/z_index = 0
7/name = "grassHalf.png 7"
7/texture = ExtResource( 14 )
7/tex_offset = Vector2( 0, 0 )
7/modulate = Color( 1, 1, 1, 1 )
7/region = Rect2( 0, 0, 70, 70 )
7/tile_mode = 0
7/occluder_offset = Vector2( 0, 0 )
7/navigation_offset = Vector2( 0, 0 )
7/shape_offset = Vector2( 0, 0 )
7/shape_transform = Transform2D( 1, 0, 0, 1, 0, 0 )
7/shape_one_way = false
7/shape_one_way_margin = 0.0
7/shapes = [  ]
7/z_index = 0
8/name = "grassHillLeft2.png 8"
8/texture = ExtResource( 13 )
8/tex_offset = Vector2( 0, 0 )
8/modulate = Color( 1, 1, 1, 1 )
8/region = Rect2( 0, 0, 70, 70 )
8/tile_mode = 0
8/occluder_offset = Vector2( 0, 0 )
8/navigation_offset = Vector2( 0, 0 )
8/shape_offset = Vector2( 0, 0 )
8/shape_transform = Transform2D( 1, 0, 0, 1, 0, 0 )
8/shape = SubResource( 13 )
8/shape_one_way = false
8/shape_one_way_margin = 1.0
8/shapes = [ {
"autotile_coord": Vector2( 0, 0 ),
"one_way": false,
"one_way_margin": 1.0,
"shape": SubResource( 13 ),
"shape_transform": Transform2D( 1, 0, 0, 1, 0, 0 )
} ]
8/z_index = 0
9/name = "grassHillRight2.png 9"
9/texture = ExtResource( 9 )
9/tex_offset = Vector2( 0, 0 )
9/modulate = Color( 1, 1, 1, 1 )
9/region = Rect2( 0, 0, 70, 70 )
9/tile_mode = 0
9/occluder_offset = Vector2( 0, 0 )
9/navigation_offset = Vector2( 0, 0 )
9/shape_offset = Vector2( 0, 0 )
9/shape_transform = Transform2D( 1, 0, 0, 1, 0, 0 )
9/shape = SubResource( 14 )
9/shape_one_way = false
9/shape_one_way_margin = 1.0
9/shapes = [ {
"autotile_coord": Vector2( 0, 0 ),
"one_way": false,
"one_way_margin": 1.0,
"shape": SubResource( 14 ),
"shape_transform": Transform2D( 1, 0, 0, 1, 0, 0 )
} ]
9/z_index = 0
10/name = "grassLeft.png 10"
10/texture = ExtResource( 10 )
10/tex_offset = Vector2( 0, 0 )
10/modulate = Color( 1, 1, 1, 1 )
10/region = Rect2( 0, 0, 70, 70 )
10/tile_mode = 0
10/occluder_offset = Vector2( 0, 0 )
10/navigation_offset = Vector2( 0, 0 )
10/shape_offset = Vector2( 0, 0 )
10/shape_transform = Transform2D( 1, 0, 0, 1, 0, 0 )
10/shape = SubResource( 3 )
10/shape_one_way = false
10/shape_one_way_margin = 1.0
10/shapes = [ {
"autotile_coord": Vector2( 0, 0 ),
"one_way": false,
"one_way_margin": 1.0,
"shape": SubResource( 3 ),
"shape_transform": Transform2D( 1, 0, 0, 1, 0, 0 )
} ]
10/z_index = 0
11/name = "grassMid.png 11"
11/texture = ExtResource( 1 )
11/tex_offset = Vector2( 0, 0 )
11/modulate = Color( 1, 1, 1, 1 )
11/region = Rect2( 0, 0, 70, 70 )
11/tile_mode = 0
11/occluder_offset = Vector2( 0, 0 )
11/navigation_offset = Vector2( 0, 0 )
11/shape_offset = Vector2( 0, 0 )
11/shape_transform = Transform2D( 1, 0, 0, 1, 0, 0 )
11/shape = SubResource( 4 )
11/shape_one_way = false
11/shape_one_way_margin = 1.0
11/shapes = [ {
"autotile_coord": Vector2( 0, 0 ),
"one_way": false,
"one_way_margin": 1.0,
"shape": SubResource( 4 ),
"shape_transform": Transform2D( 1, 0, 0, 1, 0, 0 )
} ]
11/z_index = 0
12/name = "grassRight.png 12"
12/texture = ExtResource( 6 )
12/tex_offset = Vector2( 0, 0 )
12/modulate = Color( 1, 1, 1, 1 )
12/region = Rect2( 0, 0, 70, 70 )
12/tile_mode = 0
12/occluder_offset = Vector2( 0, 0 )
12/navigation_offset = Vector2( 0, 0 )
12/shape_offset = Vector2( 0, 0 )
12/shape_transform = Transform2D( 1, 0, 0, 1, 0, 0 )
12/shape = SubResource( 5 )
12/shape_one_way = false
12/shape_one_way_margin = 1.0
12/shapes = [ {
"autotile_coord": Vector2( 0, 0 ),
"one_way": false,
"one_way_margin": 1.0,
"shape": SubResource( 5 ),
"shape_transform": Transform2D( 1, 0, 0, 1, 0, 0 )
} ]
12/z_index = 0
13/name = "grassHillRight.png 13"
13/texture = ExtResource( 2 )
13/tex_offset = Vector2( 0, 0 )
13/modulate = Color( 1, 1, 1, 1 )
13/region = Rect2( 0, 0, 70, 70 )
13/tile_mode = 0
13/occluder_offset = Vector2( 0, 0 )
13/navigation_offset = Vector2( 0, 0 )
13/shape_offset = Vector2( 0, 0 )
13/shape_transform = Transform2D( 1, 0, 0, 1, 0, 0 )
13/shape = SubResource( 6 )
13/shape_one_way = false
13/shape_one_way_margin = 1.0
13/shapes = [ {
"autotile_coord": Vector2( 0, 0 ),
"one_way": false,
"one_way_margin": 1.0,
"shape": SubResource( 6 ),
"shape_transform": Transform2D( 1, 0, 0, 1, 0, 0 )
} ]
13/z_index = 0
14/name = "grassHillLeft.png 14"
14/texture = ExtResource( 8 )
14/tex_offset = Vector2( 0, 0 )
14/modulate = Color( 1, 1, 1, 1 )
14/region = Rect2( 0, 0, 70, 70 )
14/tile_mode = 0
14/occluder_offset = Vector2( 0, 0 )
14/navigation_offset = Vector2( 0, 0 )
14/shape_offset = Vector2( 0, 0 )
14/shape_transform = Transform2D( 1, 0, 0, 1, 0, 0 )
14/shape = SubResource( 7 )
14/shape_one_way = false
14/shape_one_way_margin = 1.0
14/shapes = [ {
"autotile_coord": Vector2( 0, 0 ),
"one_way": false,
"one_way_margin": 1.0,
"shape": SubResource( 7 ),
"shape_transform": Transform2D( 1, 0, 0, 1, 0, 0 )
} ]
14/z_index = 0
