[gd_resource type="TileSet" load_steps=2 format=2]

[ext_resource path="res://Assets/Pixel Platformer Blocks/Tilemap/stone.png" type="Texture" id=1]

[resource]
0/name = "stone.png 0"
0/texture = ExtResource( 1 )
0/tex_offset = Vector2( 0, 0 )
0/modulate = Color( 1, 1, 1, 1 )
0/region = Rect2( 0, 57, 18, 18 )
0/tile_mode = 0
0/occluder_offset = Vector2( 0, 0 )
0/navigation_offset = Vector2( 0, 0 )
0/shape_offset = Vector2( 0, 0 )
0/shape_transform = Transform2D( 1, 0, 0, 1, 0, 0 )
0/shape_one_way = false
0/shape_one_way_margin = 0.0
0/shapes = [  ]
0/z_index = 0
1/name = "stone.png 1"
1/texture = ExtResource( 1 )
1/tex_offset = Vector2( 0, 0 )
1/modulate = Color( 1, 1, 1, 1 )
1/region = Rect2( 19, 57, 18, 18 )
1/tile_mode = 0
1/occluder_offset = Vector2( 0, 0 )
1/navigation_offset = Vector2( 0, 0 )
1/shape_offset = Vector2( 0, 0 )
1/shape_transform = Transform2D( 1, 0, 0, 1, 0, 0 )
1/shape_one_way = false
1/shape_one_way_margin = 0.0
1/shapes = [  ]
1/z_index = 0
2/name = "stone.png 2"
2/texture = ExtResource( 1 )
2/tex_offset = Vector2( 0, 0 )
2/modulate = Color( 1, 1, 1, 1 )
2/region = Rect2( 38, 57, 18, 18 )
2/tile_mode = 0
2/occluder_offset = Vector2( 0, 0 )
2/navigation_offset = Vector2( 0, 0 )
2/shape_offset = Vector2( 0, 0 )
2/shape_transform = Transform2D( 1, 0, 0, 1, 0, 0 )
2/shape_one_way = false
2/shape_one_way_margin = 0.0
2/shapes = [  ]
2/z_index = 0
3/name = "stone.png 3"
3/texture = ExtResource( 1 )
3/tex_offset = Vector2( 0, 0 )
3/modulate = Color( 1, 1, 1, 1 )
3/region = Rect2( 0, 76, 18, 18 )
3/tile_mode = 0
3/occluder_offset = Vector2( 0, 0 )
3/navigation_offset = Vector2( 0, 0 )
3/shape_offset = Vector2( 0, 0 )
3/shape_transform = Transform2D( 1, 0, 0, 1, 0, 0 )
3/shape_one_way = false
3/shape_one_way_margin = 0.0
3/shapes = [  ]
3/z_index = 0
4/name = "stone.png 4"
4/texture = ExtResource( 1 )
4/tex_offset = Vector2( 0, 0 )
4/modulate = Color( 1, 1, 1, 1 )
4/region = Rect2( 19, 76, 18, 18 )
4/tile_mode = 0
4/occluder_offset = Vector2( 0, 0 )
4/navigation_offset = Vector2( 0, 0 )
4/shape_offset = Vector2( 0, 0 )
4/shape_transform = Transform2D( 1, 0, 0, 1, 0, 0 )
4/shape_one_way = false
4/shape_one_way_margin = 0.0
4/shapes = [  ]
4/z_index = 0
5/name = "stone.png 5"
5/texture = ExtResource( 1 )
5/tex_offset = Vector2( 0, 0 )
5/modulate = Color( 1, 1, 1, 1 )
5/region = Rect2( 38, 76, 18, 18 )
5/tile_mode = 0
5/occluder_offset = Vector2( 0, 0 )
5/navigation_offset = Vector2( 0, 0 )
5/shape_offset = Vector2( 0, 0 )
5/shape_transform = Transform2D( 1, 0, 0, 1, 0, 0 )
5/shape_one_way = false
5/shape_one_way_margin = 0.0
5/shapes = [  ]
5/z_index = 0
6/name = "stone.png 6"
6/texture = ExtResource( 1 )
6/tex_offset = Vector2( 0, 0 )
6/modulate = Color( 1, 1, 1, 1 )
6/region = Rect2( 0, 95, 18, 18 )
6/tile_mode = 0
6/occluder_offset = Vector2( 0, 0 )
6/navigation_offset = Vector2( 0, 0 )
6/shape_offset = Vector2( 0, 0 )
6/shape_transform = Transform2D( 1, 0, 0, 1, 0, 0 )
6/shape_one_way = false
6/shape_one_way_margin = 0.0
6/shapes = [  ]
6/z_index = 0
7/name = "stone.png 7"
7/texture = ExtResource( 1 )
7/tex_offset = Vector2( 0, 0 )
7/modulate = Color( 1, 1, 1, 1 )
7/region = Rect2( 19, 95, 18, 18 )
7/tile_mode = 0
7/occluder_offset = Vector2( 0, 0 )
7/navigation_offset = Vector2( 0, 0 )
7/shape_offset = Vector2( 0, 0 )
7/shape_transform = Transform2D( 1, 0, 0, 1, 0, 0 )
7/shape_one_way = false
7/shape_one_way_margin = 0.0
7/shapes = [  ]
7/z_index = 0
8/name = "stone.png 8"
8/texture = ExtResource( 1 )
8/tex_offset = Vector2( 0, 0 )
8/modulate = Color( 1, 1, 1, 1 )
8/region = Rect2( 38, 95, 18, 18 )
8/tile_mode = 0
8/occluder_offset = Vector2( 0, 0 )
8/navigation_offset = Vector2( 0, 0 )
8/shape_offset = Vector2( 0, 0 )
8/shape_transform = Transform2D( 1, 0, 0, 1, 0, 0 )
8/shape_one_way = false
8/shape_one_way_margin = 0.0
8/shapes = [  ]
8/z_index = 0
9/name = "stone.png 9"
9/texture = ExtResource( 1 )
9/tex_offset = Vector2( 0, 0 )
9/modulate = Color( 1, 1, 1, 1 )
9/region = Rect2( 114, 57, 18, 18 )
9/tile_mode = 0
9/occluder_offset = Vector2( 0, 0 )
9/navigation_offset = Vector2( 0, 0 )
9/shape_offset = Vector2( 0, 0 )
9/shape_transform = Transform2D( 1, 0, 0, 1, 0, 0 )
9/shape_one_way = false
9/shape_one_way_margin = 0.0
9/shapes = [  ]
9/z_index = 0
10/name = "stone.png 10"
10/texture = ExtResource( 1 )
10/tex_offset = Vector2( 0, 0 )
10/modulate = Color( 1, 1, 1, 1 )
10/region = Rect2( 114, 95, 18, 18 )
10/tile_mode = 0
10/occluder_offset = Vector2( 0, 0 )
10/navigation_offset = Vector2( 0, 0 )
10/shape_offset = Vector2( 0, 0 )
10/shape_transform = Transform2D( 1, 0, 0, 1, 0, 0 )
10/shape_one_way = false
10/shape_one_way_margin = 0.0
10/shapes = [  ]
10/z_index = 0
11/name = "stone.png 11"
11/texture = ExtResource( 1 )
11/tex_offset = Vector2( 0, 0 )
11/modulate = Color( 1, 1, 1, 1 )
11/region = Rect2( 114, 76, 18, 18 )
11/tile_mode = 0
11/occluder_offset = Vector2( 0, 0 )
11/navigation_offset = Vector2( 0, 0 )
11/shape_offset = Vector2( 0, 0 )
11/shape_transform = Transform2D( 1, 0, 0, 1, 0, 0 )
11/shape_one_way = false
11/shape_one_way_margin = 0.0
11/shapes = [  ]
11/z_index = 0
12/name = "stone.png 12"
12/texture = ExtResource( 1 )
12/tex_offset = Vector2( 0, 0 )
12/modulate = Color( 1, 1, 1, 1 )
12/region = Rect2( 133, 57, 18, 18 )
12/tile_mode = 0
12/occluder_offset = Vector2( 0, 0 )
12/navigation_offset = Vector2( 0, 0 )
12/shape_offset = Vector2( 0, 0 )
12/shape_transform = Transform2D( 1, 0, 0, 1, 0, 0 )
12/shape_one_way = false
12/shape_one_way_margin = 0.0
12/shapes = [  ]
12/z_index = 0
13/name = "stone.png 13"
13/texture = ExtResource( 1 )
13/tex_offset = Vector2( 0, 0 )
13/modulate = Color( 1, 1, 1, 1 )
13/region = Rect2( 152, 57, 18, 18 )
13/tile_mode = 0
13/occluder_offset = Vector2( 0, 0 )
13/navigation_offset = Vector2( 0, 0 )
13/shape_offset = Vector2( 0, 0 )
13/shape_transform = Transform2D( 1, 0, 0, 1, 0, 0 )
13/shape_one_way = false
13/shape_one_way_margin = 0.0
13/shapes = [  ]
13/z_index = 0
14/name = "stone.png 14"
14/texture = ExtResource( 1 )
14/tex_offset = Vector2( 0, 0 )
14/modulate = Color( 1, 1, 1, 1 )
14/region = Rect2( 152, 76, 18, 18 )
14/tile_mode = 0
14/occluder_offset = Vector2( 0, 0 )
14/navigation_offset = Vector2( 0, 0 )
14/shape_offset = Vector2( 0, 0 )
14/shape_transform = Transform2D( 1, 0, 0, 1, 0, 0 )
14/shape_one_way = false
14/shape_one_way_margin = 0.0
14/shapes = [  ]
14/z_index = 0
15/name = "stone.png 15"
15/texture = ExtResource( 1 )
15/tex_offset = Vector2( 0, 0 )
15/modulate = Color( 1, 1, 1, 1 )
15/region = Rect2( 133, 95, 18, 18 )
15/tile_mode = 0
15/occluder_offset = Vector2( 0, 0 )
15/navigation_offset = Vector2( 0, 0 )
15/shape_offset = Vector2( 0, 0 )
15/shape_transform = Transform2D( 1, 0, 0, 1, 0, 0 )
15/shape_one_way = false
15/shape_one_way_margin = 0.0
15/shapes = [  ]
15/z_index = 0
16/name = "stone.png 16"
16/texture = ExtResource( 1 )
16/tex_offset = Vector2( 0, 0 )
16/modulate = Color( 1, 1, 1, 1 )
16/region = Rect2( 152, 95, 18, 18 )
16/tile_mode = 0
16/occluder_offset = Vector2( 0, 0 )
16/navigation_offset = Vector2( 0, 0 )
16/shape_offset = Vector2( 0, 0 )
16/shape_transform = Transform2D( 1, 0, 0, 1, 0, 0 )
16/shape_one_way = false
16/shape_one_way_margin = 0.0
16/shapes = [  ]
16/z_index = 0
