[gd_scene load_steps=2 format=2]

[ext_resource path="res://Scripts/CanvasLayer.gd" type="Script" id=1]

[node name="CanvasLayer" type="CanvasLayer"]
script = ExtResource( 1 )

[node name="Button" type="Button" parent="."]
margin_right = 320.0
margin_bottom = 96.0
text = "Send data"

[node name="HTTPRequest" type="HTTPRequest" parent="."]

[node name="Button2" type="Button" parent="."]
margin_top = 128.0
margin_right = 320.0
margin_bottom = 224.0
text = "Receive data"

[connection signal="pressed" from="Button" to="." method="_on_Button_pressed"]
[connection signal="pressed" from="Button2" to="." method="_on_Button2_pressed"]
